Date of starting logging: 2023-02-12 16:40:49.894686
first [] - time when was added this log
second [] - execution time
Last edited: 2023-02-12 16:40:59.639416
[2023-02-12 16:40:49.894686][0.0] New log i - 233 times
[2023-02-12 16:40:56.743006][0.0] New log b - 49 times
[2023-02-12 16:40:59.639416][0.0007469654083251953] New log a - 332 times
